%YAML 1.1
%TAG !u! tag:unity3d.com,2011:
--- !u!1045 &1
EditorBuildSettings:
  m_ObjectHideFlags: 0
  serializedVersion: 2
  m_Scenes:
  - enabled: 1
    path: Assets/Scenes/MainMenu.unity
    guid: fa06a0d97ab46c2448f2f2f3a6b19984
  - enabled: 1
    path: Assets/Scenes/Tutorial.unity
    guid: 9fc0d4010bbf28b4594072e72b8655ab
  - enabled: 1
    path: Assets/Scenes/Level_01.unity
    guid: 3b3dfce94632e80499186f368bcf1d39
  - enabled: 1
    path: Assets/Scenes/Infinite.unity
    guid: ba6e8a40dcd8ea34a9191efb95e86631
  m_configObjects: {}
